…
Results are: 
```
# A tibble: 44 × 8
   species                 n_sampled n_positive n_negative prevalence ci_low ci_high
 1 Alouatta_macconnelli        22         20          2     0.909   0.708    0.989 
 2 Bradypus_tridactylus       108          4        104     0.0370  0.0102   0.0921
 3 Cabassous_unicinctus         2          0          2     0       0        0.842 
 4 Caluromys_philander          5          0          5     0       0        0.522 
 5 Cebus_apella                 1          0          1     0       0        0.975 
 6 Choloepus_didactylus        90         72         18     0.8     0.702    0.877 
 7 Coendou_melanurus            1          0          1     0       0        0.975 
 8 Coendou_sp                   3          1          2     0.333   0.00840  0.906 
 9 Cyclopes_didactylus          1          0          1     0       0        0.975 
10 Dasypus_novemcinctus        15          5         10     0.333   0.118    0.616 
# 34 more rows
```
…
